{
  "roomID": 3,
  "displayName": "395",
  "displayDescription": "Labor",
  "barcode": "KAZ6UCZS",
  "itemID": null,
  "subrooms": [
    {
      "roomID": 6,
      "displayName": "Box",
      "displayDescription": "395.Box",
      "barcode": "Box",
      "itemID": null,
      "subrooms": [],
      "items": [
        {
          "times_found_last": 1,
          "itemID": 45,
          "displayName": "RAM-Riegel",
          "displayDescription": "",
          "barcode": "93020000",
          "room": "440 (Klassenraum)",
          "fields": {
            "anlagenbeschreibung_prio": "RAM-Riegel",
            "item_type": 3,
            "comment": "",
            "label": false,
            "scrap": false,
            "sale": false,
            "anlagenbeschreibung": "Kasten",
            "custom_fields": {},
            "sponsor": "",
            "is_in_sap": true
          },
          "attachments": []
        },
        {
          "times_found_last": 1,
          "itemID": 54,
          "displayName": "Kaltgerätekabel",
          "displayDescription": "",
          "barcode": "92450000",
          "room": "Box (395.Box)",
          "fields": {
            "anlagenbeschreibung_prio": "Kaltgerätekabel",
            "item_type": 1,
            "comment": "",
            "label": false,
            "scrap": false,
            "sale": false,
            "anlagenbeschreibung": null,
            "custom_fields": {},
            "sponsor": "",
            "is_in_sap": false
          },
          "attachments": []
        }
      ]
    },
    {
      "roomID": 7,
      "displayName": "Kasten",
      "displayDescription": "395.Kasten",
      "barcode": "Kasten",
      "itemID": null,
      "subrooms": [],
      "items": [
        {
          "times_found_last": 1,
          "itemID": 23,
          "displayName": "Whiteboard",
          "displayDescription": "",
          "barcode": "13610000",
          "room": "Kasten (395.Kasten)",
          "fields": {
            "anlagenbeschreibung_prio": "",
            "item_type": 3,
            "comment": "Quaerat porro beatae expedita repellat odit repellendus. Possimus delectus occaecati quas natus ea ea commodi.\r\nDeserunt quisquam culpa nostrum quibusdam. Ducimus officia fugit vero itaque corrupti.",
            "label": false,
            "scrap": false,
            "sale": false,
            "anlagenbeschreibung": "Whiteboard",
            "custom_fields": {},
            "sponsor": "",
            "is_in_sap": true
          },
          "attachments": []
        },
        {
          "times_found_last": 1,
          "itemID": 25,
          "displayName": "Messer",
          "displayDescription": "",
          "barcode": "48360000",
          "room": "Kasten (395.Kasten)",
          "fields": {
            "anlagenbeschreibung_prio": "",
            "item_type": 2,
            "comment": "",
            "label": false,
            "scrap": false,
            "sale": false,
            "anlagenbeschreibung": "Messer",
            "custom_fields": {},
            "sponsor": "",
            "is_in_sap": true
          },
          "attachments": []
        }
      ]
    }
  ],
  "items": [
    {
      "times_found_last": 1,
      "itemID": 22,
      "displayName": "Mikrolith",
      "displayDescription": "",
      "barcode": "19780000",
      "room": "395 (Labor)",
      "fields": {
        "anlagenbeschreibung_prio": null,
        "item_type": 2,
        "comment": null,
        "label": false,
        "scrap": false,
        "sale": false,
        "anlagenbeschreibung": "Mikrolith",
        "custom_fields": {},
        "sponsor": null,
        "is_in_sap": true
      },
      "attachments": []
    },
    {
      "times_found_last": 1,
      "itemID": 24,
      "displayName": "Beschriftungsgerät",
      "displayDescription": "",
      "barcode": "06020000",
      "room": "395 (Labor)",
      "fields": {
        "anlagenbeschreibung_prio": null,
        "item_type": 3,
        "comment": null,
        "label": false,
        "scrap": false,
        "sale": false,
        "anlagenbeschreibung": "Beschriftungsgerät",
        "custom_fields": {},
        "sponsor": "Cisco",
        "is_in_sap": true
      },
      "attachments": []
    },
    {
      "times_found_last": 1,
      "itemID": 26,
      "displayName": "Klebstoff",
      "displayDescription": "",
      "barcode": "5032227490048",
      "room": "395 (Labor)",
      "fields": {
        "anlagenbeschreibung_prio": "",
        "item_type": 3,
        "comment": "",
        "label": false,
        "scrap": false,
        "sale": false,
        "anlagenbeschreibung": "Klebstoff",
        "custom_fields": {},
        "sponsor": "",
        "is_in_sap": true
      },
      "attachments": []
    },
    {
      "times_found_last": 1,
      "itemID": 27,
      "displayName": "Beschriftungsgerät",
      "displayDescription": "",
      "barcode": "23430000",
      "room": "395 (Labor)",
      "fields": {
        "anlagenbeschreibung_prio": "Beschriftungsgerät",
        "item_type": 3,
        "comment": null,
        "label": false,
        "scrap": false,
        "sale": false,
        "anlagenbeschreibung": "Beschriftungsgerät",
        "custom_fields": {},
        "sponsor": null,
        "is_in_sap": true
      },
      "attachments": []
    },
    {
      "times_found_last": 1,
      "itemID": 28,
      "displayName": "Schwammbrett",
      "displayDescription": "",
      "barcode": "87560000",
      "room": "395 (Labor)",
      "fields": {
        "anlagenbeschreibung_prio": "Schwammbrett",
        "item_type": 2,
        "comment": null,
        "label": false,
        "scrap": false,
        "sale": false,
        "anlagenbeschreibung": "Schwammbrett",
        "custom_fields": {},
        "sponsor": null,
        "is_in_sap": true
      },
      "attachments": []
    },
    {
      "times_found_last": 1,
      "itemID": 29,
      "displayName": "Samsung SSD 256 GB",
      "displayDescription": "",
      "barcode": "83130000",
      "room": "395 (Labor)",
      "fields": {
        "anlagenbeschreibung_prio": null,
        "item_type": 1,
        "comment": null,
        "label": false,
        "scrap": false,
        "sale": false,
        "anlagenbeschreibung": "Samsung SSD 256 GB",
        "custom_fields": {},
        "sponsor": "OMV",
        "is_in_sap": true
      },
      "attachments": []
    },
    {
      "times_found_last": 1,
      "itemID": 31,
      "displayName": "Leuchtmittel",
      "displayDescription": "",
      "barcode": "38770000",
      "room": "395 (Labor)",
      "fields": {
        "anlagenbeschreibung_prio": null,
        "item_type": 3,
        "comment": null,
        "label": false,
        "scrap": false,
        "sale": false,
        "anlagenbeschreibung": "Leuchtmittel",
        "custom_fields": {},
        "sponsor": null,
        "is_in_sap": true
      },
      "attachments": []
    }
  ]
}