[
    {
        "stocktake_id": 9,
        "url": "http://10.0.0.100:8000/api/stocktaking/9/?format=json",
        "ui_url": "http://10.0.0.100:8000/stocktaking/stocktaking/9/",
        "created": "2020-03-02T12:34:50.026356",
        "modified": "2020-03-02T12:34:50.026401",
        "date_started": "2020-03-02",
        "time_started": "12:34:50.026449",
        "date_finished": null,
        "time_finished": null,
        "name": "InnoTaking",
        "comment": "",
        "neverending_stocktaking": false,
        "user": "http://10.0.0.100:8000/api/users/1/?format=json"
    },
    {
        "stocktake_id": 16,
        "url": "http://10.0.0.100:8000/api/stocktaking/16/?format=json",
        "ui_url": "http://10.0.0.100:8000/stocktaking/stocktaking/16/",
        "created": "2020-09-06T21:51:32.274782",
        "modified": "2020-09-06T21:51:32.274805",
        "date_started": "2020-09-06",
        "time_started": "21:51:32.274825",
        "date_finished": null,
        "time_finished": null,
        "name": "TestTaking",
        "comment": "",
        "neverending_stocktaking": false,
        "user": "http://10.0.0.100:8000/api/users/1/?format=json"
    }
]